<svg xmlns="http://www.w3.org/2000/svg" viewBox="0 0 23.803 22.803">
  <defs>
    <style>
      .cls-1, .cls-2 {
        fill: none;
        stroke: #fff;
        stroke-miterlimit: 10;
        stroke-width: 2px;
      }

      .cls-2 {
        stroke-linecap: square;
      }
    </style>
  </defs>
  <g id="file-download-94" transform="translate(-1 -2)">
    <line id="Line_22" data-name="Line 22" class="cls-1" x1="21.803" transform="translate(2 17.262)"/>
    <line id="Line_23" data-name="Line 23" class="cls-1" y2="9.448" transform="translate(12.901 2)"/>
    <path id="Path_4687" data-name="Path 4687" class="cls-2" d="M18.715,22h.727L23.8,29.994v6.541H2V29.994L6.361,22h.727" transform="translate(0 -12.732)"/>
    <path id="Path_4688" data-name="Path 4688" class="cls-2" d="M29.541,19l-3.27,3.27L23,19" transform="translate(-13.369 -10.823)"/>
    <line id="Line_24" data-name="Line 24" class="cls-2" x1="3.634" transform="translate(16.535 20.532)"/>
  </g>
</svg>
