<svg xmlns="http://www.w3.org/2000/svg" viewBox="0 0 276.221 43.884">
  <defs>
    <style>
      .cls-1 {
        fill: #fff;
      }
    </style>
  </defs>
  <g id="Group_5611" data-name="Group 5611" transform="translate(-4529.685 -1214.896)">
    <path id="Path_2381" data-name="Path 2381" class="cls-1" d="M108.809,155.058,96.2,120.007a4.716,4.716,0,0,1-.4-1.6,3.079,3.079,0,0,1,3-3H99a3.423,3.423,0,0,1,3.2,2.6l10.407,30.244L123.019,118a3.018,3.018,0,0,1,3-2.4h.4a3.426,3.426,0,0,1,3.2,2.4l10.407,30.244L150.638,117.8a3.188,3.188,0,0,1,3-2.4,2.909,2.909,0,0,1,3,2.8,3.776,3.776,0,0,1-.4,1.6l-12.609,35.051a3.614,3.614,0,0,1-3.4,2.8h-.2a3.614,3.614,0,0,1-3.4-2.8l-10.407-29.844-10.407,29.844a3.614,3.614,0,0,1-3.4,2.8h-.2c-1.6.2-2.8-.8-3.4-2.6" transform="translate(4544.192 1100.505)"/>
    <path id="Path_2382" data-name="Path 2382" class="cls-1" d="M148.2,118.5a3.42,3.42,0,0,1,3-3.2,3.162,3.162,0,0,1,3.2,3.2h0v7.211a17.041,17.041,0,0,1,14.21-10.215,3.079,3.079,0,0,1,3,3v.2a3.237,3.237,0,0,1-2.8,3.2c-8.006,1-14.61,7.01-14.61,19.028v14.021a3,3,0,0,1-3,3.2,3.163,3.163,0,0,1-3.2-3.2h0l.2-36.453" transform="translate(4596.463 1100.405)"/>
    <path id="Path_2383" data-name="Path 2383" class="cls-1" d="M179.814,158.363c-11.208,0-20.214-8.613-20.214-21.431v-.2c0-11.817,8.206-21.431,19.413-21.431,12.008,0,18.813,10.015,18.813,20.831a2.737,2.737,0,0,1-2.8,2.8H165.8c.8,8.813,7,13.82,14.41,13.82a17.352,17.352,0,0,0,11.808-4.807,2.979,2.979,0,0,1,1.8-.8,2.65,2.65,0,0,1,2.6,2.6,2.466,2.466,0,0,1-1,2,20.014,20.014,0,0,1-15.611,6.61m12.208-23.835c-.6-7.411-4.8-14.021-13.009-14.021-7,0-12.409,6.009-13.209,14.021Z" transform="translate(4608.079 1100.405)"/>
    <path id="Path_2384" data-name="Path 2384" class="cls-1" d="M126.2,145.359h0c0-8.813,7.2-13.62,17.612-13.62a46.021,46.021,0,0,1,12.809,1.8v-1.4c0-7.411-4.6-11.216-12.408-11.216a26.372,26.372,0,0,0-9.607,1.8,2.536,2.536,0,0,1-1.2.2,2.989,2.989,0,0,1-2.8-2.6,2.684,2.684,0,0,1,1.6-2.6,26.454,26.454,0,0,1,12.409-2.4c5.8,0,10.407,1.6,13.409,4.607a16.442,16.442,0,0,1,4.2,12.018v22.833a2.752,2.752,0,0,1-2.6,3h-.4a2.736,2.736,0,0,1-3-2.6v-4.206a17.932,17.932,0,0,1-15.01,7.211c-7.2.2-15.01-4.206-15.01-12.819m30.421-3.2v-4.006a41.9,41.9,0,0,0-12.208-1.8c-7.805,0-12.008,3.4-12.008,8.613v.2c0,5.208,4.8,8.212,10.407,8.212,7.605,0,13.809-4.607,13.809-11.216" transform="translate(4574.633 1100.39)"/>
    <path id="Path_2385" data-name="Path 2385" class="cls-1" d="M51.923,118.509a5.634,5.634,0,0,0-7.605-3h-.2a5.68,5.68,0,0,0-3,7.411.7.7,0,0,0,.2.4l13.209,28.642c2,4.406,4.2,6.81,8.406,6.81,4.4,0,6.2-2.6,8.406-6.81,0,0,11.408-25.037,11.608-25.237a1.793,1.793,0,0,1,3.4.8h0v24.436c0,3.806,2,6.81,6,6.81s6.2-3,6.2-6.81V131.929a6.245,6.245,0,0,1,6-6.409h.6a5.987,5.987,0,0,1,6.2,5.608v20.831c0,3.806,2,6.81,6,6.81s6.2-3,6.2-6.81V131.929a6.245,6.245,0,0,1,6-6.409h.6a5.987,5.987,0,0,1,6.2,5.608v20.831c0,3.806,2,6.81,6,6.81s6.2-3,6.2-6.81V129.125A14.313,14.313,0,0,0,134.18,114.9h-.4a20.283,20.283,0,0,0-13.209,5.608c-2.6-3.4-6.4-5.608-12.609-5.608-6.6,0-12.408,5.608-12.408,5.608A14.538,14.538,0,0,0,84.546,114.9a13.659,13.659,0,0,0-13.409,9.013l-8.406,19.829L51.923,118.509" transform="translate(4489 1100)"/>
  </g>
</svg>
